Categories:Games
License:FreeBSD
Web Site:https://github.com/bobthekingofegypt/BobBall/blob/HEAD/README.mkd
Source Code:https://github.com/bobthekingofegypt/BobBall
Issue Tracker:https://github.com/bobthekingofegypt/BobBall/issues

Auto Name:BobBall
Summary:Jezzball style clone
Description:
BobBall is a simple version of the old game Jezzball.

Features:

* Easy to play, hard to master
* Infinite levels
* Top scores table
.

Repo Type:git
Repo:https://github.com/bobthekingofegypt/BobBall.git

Build:1.0,1
    commit=v1.0

Build:1.3.1,5
    disable=resource issues
    commit=v1.3.1

Build:1.4,6
    disable=resource issues
    commit=v1.4

Build:1.5,7
    disable=resource issues
    commit=v1.5

Build:1.5.1,8
    commit=v1.5.1

Build:1.6,9
    commit=v1.6

Build:1.7,10
    commit=v1.7

Build:1.7.1,11
    commit=v1.7.1

Build:1.8,12
    commit=v1.8

Build:1.8.1,13
    commit=v1.8.1
    subdir=app
    gradle=yes

Build:1.8.2,14
    commit=v1.8.2
    subdir=app
    gradle=yes

Build:1.8.3,15
    commit=v1.8.3
    subdir=app
    gradle=yes

Build:1.9.1,17
    commit=v1.9.1
    subdir=app
    gradle=yes

Build:1.10,18
    commit=v1.10
    subdir=app
    gradle=yes

Build:1.11,19
    commit=v1.11
    subdir=app
    gradle=yes

Build:1.12,20
    commit=v1.12
    subdir=app
    gradle=yes

Build:1.12.1,21
    commit=v1.12.1
    subdir=app
    gradle=yes

Build:1.13,22
    commit=v1.13
    subdir=app
    gradle=yes

Build:1.14,23
    commit=v1.14
    subdir=app
    gradle=yes

Auto Update Mode:Version v%v
Update Check Mode:Tags
Current Version:1.14
Current Version Code:23
